{
    "introductionTitle1": "Tres años de experiencia como líder técnico y ocho en desarrollo de software.",
    "introductionTitle2": "Director de proyectos de software a la medida con alta calidad y limpieza arquitectónica.",
    "introductionTitle3": "Consultor en procesos de software con estándares ISO-29110 para Muy Pequeñas Entidades.",
    "introductionTitle4": "Experiencia en docencia universitaria e investigación.",
    "personalInformationTitle": "Información personal",
    "knowledgeTitle": "Conocimientos",
    "programmingTitle": "Programación",
    "operativeSystemsTitle": "Sistemas operativos",
    "languagesTitle": "Lenguajes",
    "firstLanguage": "Español (nativo)",
    "secondLanguage": "Ingles (B2)",
    "profileTitle": "Perfil",
    "profileDescription": "Soy una persona que puede realizar desarrollos de software en productos de procedimientos y arquitecturas de alta calidad y alta eficiencia costo-operativa.",
    "experienceTitle": "Experiencia (Trabajos más significativos)",
    "nowTitle": "actualidad",
    "firstExperienceDescription": "Múltiples frameworks para fullstack (Struts / SpringMVC, redux + react + angular) con la aplicación \\underline{\\href{https://www.blackboard.com/learnultra}{Learn Ultra}}, liderazgo en arquitecturas y desarrollos para todas las características con AWS. También trabajé para CAPTain en PHP, un software para administrar instancias de Ultra - Learn.",
    "secondExperienceDescription": "Director de desarrollo, líder arquitectónico e implementador de AWS de toda la aplicación \\underline{\\href{https://app.identidapp.com/login}{IDentidApp}} desde cero, utilizada para validar las identidades de las personas.",
    "thirdExperienceDescription": "Administrador de microservicios en Python sin frameworks, utilizando GraphQL como API Gateway de la organización. Desarrollador back-end del proyectos para administrar turnos y verificar su superposición, usando cobertura de pruebas total y Ansible para despliegues en producción.",
    "portfolioTitle": "Portafolio",
    "portfolioFirstEntry": "\\underline{\\href{https://bitbucket.org/personal-jjalvarezl/0001.-mi-hoja-de-vida/}{Mi propia hoja de vida}} ha sido realizada usando, docker composer, instrucciones bash, el api de bitbucket, bitbucket pipelines, sftp, Circle CI y mas.",
    "portfolioSecondEntry": "\\underline{\\href{https://bitbucket.org/personal-jjalvarezl/personal-environment/}{Mi entorno personal}} el cual instala mis aplicaciones en mi sistema operativo de preferencia automáticamente.",
    "portfolioThirdEntry": "\\underline{\\href{https://github.com/knowark/authark}{Shiftark}} ha sido mejorado usando Travis CI con codecov como herramienta de ilustración estadistica de cobertura de código.",
    "educationTitle": "Educación",
    "firstEducationTitle": "Mag. en Ciencias de la Computación.",
    "firstEducationDescription": "Tesis: Análisis Visual de Métricas de Confiabilidad en SPEM 2.0.",
    "secondEducationTitle": "Ingeniero de Sistemas.",
    "secondEducationDescription": "Tesis: UP-VSE, un Proceso de Referencia para Pequeñas Entidades de Desarrollo de Software Basado en el Proceso Unificado.",
    "skillsTitle": "Habilidades duras y blandas",
    "firstSkill": "Autogestión",
    "secondSkill": "Arquitectura de Software",
    "thirdSkill": "Creatividad",
    "fourthSkill": "Resiliencia",
    "fifthSkill": "Asertividad"
}